1 10 20
100 200 125
201 210 89
900 1000 174
1 2 2
3 7 17
2 8 17
1 1000 179
990 999 112
500 1000 179
100 150 122
42 75 116
876 890 148
15 35 112
777 789 122
123 456 144
678 789 171
32 45 110
333 444 134
678 999 179
125 250 128
876 912 148
321 435 144
543 654 145
1 500 144
34 78 116
111 333 144
456 789 171
101 150 122
666 999 179
987 1000 112
102 200 125
1 30 112
444 555 142
789 800 122
901 1000 174
98 123 114
234 345 144
800 900 179
123 234 128
456 567 142
987 998 112
2 45 112
345 456 134
999 1000 112
88 123 119
234 321 131
678 765 171
543 632 137
345 444 134
234 333 144
99 200 125
543 654 145
321 432 144
77 100 119
400 500 142
890 999 174
111 222 125
555 666 145
789 899 179
123 222 125
444 543 142
777 888 179
123 250 128
555 777 171
345 555 142
20 50 112
300 450 144
890 990 174
100 200 125
654 765 171
987 1000 112
111 150 122
400 550 142
600 750 171
1 5 8
250 500 144
750 1000 179
12 24 21
999 1000 112
900 999 174
75 100 119
350 400 126
810 850 135
16 32 112
888 999 174
800 850 135
44 55 113
234 321 131
123 222 125
789 800 122
600 700 145
1 15 20
345 400 126
777 789 122
10 20 21
111 123 96
123 234 128
450 500 142
999 1000 112
800 888 179
20 25 24
444 555 142
543 654 145
75 80 36
200 300 128
888 900 148
8 16 20
333 400 126
765 800 153
19 38 112
543 666 145
990 998 112
49 64 113
800 900 179
1 1000 179
25 35 112
456 543 142
632 777 171
9 18 21
321 400 144
850 900 179
28 36 107
555 654 145
789 850 135
30 40 107
900 1000 174
112 125 109
789 850 135
24 30 112
400 450 134
888 950 174
50 60 113
123 150 122
850 900 179
63 75 116
543 600 137
777 850 135
5 10 20
444 500 142
765 810 153
48 56 113
234 300 128
900 950 174
15 20 21
666 750 171
888 950 174
36 44 110
450 543 142
654 750 171
23 28 112
850 888 179
990 1000 112
58 63 108
321 350 144
765 800 153
12 18 21
750 810 153
920 950 174
33 38 27
555 600 119
850 888 179
43 48 105
400 444 134
777 810 122
21 25 24
789 825 135
901 950 174
53 58 113
543 577 137
888 920 148
17 21 21
632 666 145
810 850 135
900 1000 174
4000 5000 215
9000 10000 260
10000 100000 351
999990 999999 259
