.....................
----------------------------------------------------------------------
Ran 21 tests in 2.733s

OK
Name             Stmts   Miss Branch BrPart  Cover   Missing
------------------------------------------------------------
Collatz.py          39      0     18      0   100%
TestCollatz.py      89      0      0      0   100%
------------------------------------------------------------
TOTAL              128      0     18      0   100%
